<svg xmlns:dc="http://purl.org/dc/elements/1.1/" xmlns:cc="http://creativecommons.org/ns#" xmlns:rdf="http://www.w3.org/1999/02/22-rdf-syntax-ns#" xmlns:svg="http://www.w3.org/2000/svg" xmlns="http://www.w3.org/2000/svg" xmlns:xlink="http://www.w3.org/1999/xlink" xmlns:sodipodi="http://sodipodi.sourceforge.net/DTD/sodipodi-0.dtd" xmlns:inkscape="http://www.inkscape.org/namespaces/inkscape" width="210mm" height="297mm" viewBox="0 0 210 297" version="1.1" id="svg2773" inkscape:version="0.92.5 (2060ec1f9f, 2020-04-08)" sodipodi:docname="pattern-along-path.svg">
  <defs id="defs2767"/>
  <sodipodi:namedview inkscape:window-maximized="1" inkscape:window-y="-8" inkscape:window-x="1912" inkscape:window-height="837" inkscape:window-width="1440" showgrid="false" inkscape:document-rotation="0" inkscape:current-layer="layer1" inkscape:document-units="mm" inkscape:cy="561.25984" inkscape:cx="396.85039" inkscape:zoom="0.5701459" inkscape:pageshadow="2" inkscape:pageopacity="0.0" borderopacity="1.0" bordercolor="#666666" pagecolor="#ffffff" id="base"/>
  <metadata id="metadata2770">
    <rdf:RDF>
      <cc:Work rdf:about="">
        <dc:format>image/svg+xml</dc:format>
        <dc:type rdf:resource="http://purl.org/dc/dcmitype/StillImage"/>
        <dc:title/>
      </cc:Work>
    </rdf:RDF>
  </metadata>
  <g id="layer1" inkscape:groupmode="layer" inkscape:label="&#12524;&#12452;&#12516;&#12540; 1">
    <svg:path d="m 78.6928 147.289 c 0 0 8.65938 -20.3754 32.3157 -25.582 c 22.7349 -5.0038 49.9922 13.1256 49.9922 13.1256" style="fill:none;stroke:#000000;stroke-width:0.26458299px;stroke-linecap:butt;stroke-linejoin:miter;stroke-opacity:1" id="path3336"/>
    <g id="g5438" transform="translate(-23.434524,-6.2366068)">
      <path id="circle5421" d="m -24.195656,32.220451 a 2.6785679,2.6785679 0 0 1 -2.678568,2.678568 2.6785679,2.6785679 0 0 1 -2.678568,-2.678568 2.6785679,2.6785679 0 0 1 2.678568,-2.678568 2.6785679,2.6785679 0 0 1 2.678568,2.678568 z" style="fill:#ff0000;stroke-width:0.529167" inkscape:connector-curvature="0"/>
      <path id="circle5423" d="m -15.7612,32.220451 a 2.6785679,2.6785679 0 0 1 -2.678568,2.678568 2.6785679,2.6785679 0 0 1 -2.678568,-2.678568 2.6785679,2.6785679 0 0 1 2.678568,-2.678568 2.6785679,2.6785679 0 0 1 2.678568,2.678568 z" style="fill:#000080;stroke-width:0.529167" inkscape:connector-curvature="0"/>
      <path id="circle5425" d="m -20.060417,38.32814 a 2.6785679,2.6785679 0 0 1 -2.678568,2.678568 2.6785679,2.6785679 0 0 1 -2.678568,-2.678568 2.6785679,2.6785679 0 0 1 2.678568,-2.678568 2.6785679,2.6785679 0 0 1 2.678568,2.678568 z" style="fill:#008080;stroke-width:0.529167" inkscape:connector-curvature="0"/>
    </g>
    <g id="g5848" transform="translate(125.4349,80.723289)">
      <use x="0" y="0" xlink:href="#g5438" id="use5838" transform="translate(-26.83631,54.61756)" width="100%" height="100%"/>
      <use x="0" y="0" xlink:href="#g5438" id="use5840" transform="matrix(1,0,0,-1,-11.339286,112.69292)" width="100%" height="100%"/>
      <use x="0" y="0" xlink:href="#g5438" id="use5842" transform="translate(4.5357143,54.61756)" width="100%" height="100%"/>
      <use height="100%" width="100%" transform="matrix(1,0,0,-1,20.599702,112.69292)" id="use5830" xlink:href="#g5438" y="0" x="0"/>
    </g><svg:g id="g5815">
      <g id="g8555">
      <svg:path d="M 78.7017 140.999 C 79.3048 141.374 79.7342 141.973 79.8953 142.665 C 80.0565 143.357 79.939 144.104 79.5879 144.721 C 79.2369 145.339 78.6482 145.845 77.9796 146.085 C 77.311 146.324 76.5746 146.289 75.9323 145.985 C 75.2901 145.682 74.7947 145.136 74.555 144.467 C 74.3154 143.799 74.5799 142.692 74.9309 142.074 C 75.282 141.456 75.9874 140.825 76.6792 140.664 C 77.371 140.503 78.0985 140.623 78.7017 140.999 Z" style="fill:#ff0000;stroke-width:0.529167" id="path5392"/>
      <svg:path d="M 84.2344 133.853 C 84.7501 134.342 84.9695 135.071 85.0297 135.778 C 85.0899 136.486 84.8664 137.189 84.4085 137.732 C 83.9506 138.275 83.2995 138.661 82.5958 138.758 C 81.8922 138.856 81.1788 138.669 80.6124 138.241 C 80.0461 137.812 79.6733 137.176 79.576 136.472 C 79.4788 135.768 79.8558 134.822 80.3137 134.279 C 80.7716 133.736 81.4265 133.397 82.1342 133.337 C 82.842 133.277 83.7187 133.365 84.2344 133.853 Z" style="fill:#000080;stroke-width:0.529167" id="path9603"/>
      <svg:path d="M 86.1194 141.083 C 86.6857 141.512 87.0585 142.148 87.1558 142.852 C 87.2531 143.555 87.239 144.055 86.8379 144.641 C 86.4367 145.227 85.9555 145.435 85.2637 145.596 C 84.5718 145.758 83.8443 145.637 83.2412 145.262 C 82.6381 144.887 82.2087 144.287 82.0475 143.595 C 81.8864 142.904 82.0161 142.202 82.4173 141.616 C 82.8184 141.029 83.4323 140.663 84.136 140.565 C 84.8396 140.468 85.5531 140.654 86.1194 141.083 Z" style="fill:#008080;stroke-width:0.529167" id="path4306"/>
    </g>
    
      <g id="g7856">
      <svg:path d="M 93.5349 133.434 C 93.0778 132.89 92.4233 132.55 91.7156 132.489 C 91.0079 132.428 90.3241 132.653 89.7964 133.128 C 89.2687 133.604 88.9874 134.276 88.9738 134.987 C 88.9603 135.697 89.3256 136.326 89.8413 136.814 C 90.357 137.303 90.8904 137.702 91.6006 137.716 C 92.3109 137.729 92.8546 137.583 93.3823 137.108 C 93.9101 136.632 94.0921 136.096 94.1533 135.388 C 94.2145 134.681 93.9921 133.977 93.5349 133.434 Z" style="fill:#ff0000;stroke-width:0.529167" id="path5654"/>
      <svg:path d="M 100.033 129.055 C 99.6885 128.434 99.111 127.976 98.428 127.78 C 97.745 127.585 97.0433 127.692 96.437 128.062 C 95.8307 128.432 95.4415 129.05 95.3021 129.746 C 95.1627 130.443 95.3919 131.132 95.8083 131.708 C 96.2247 132.283 96.7062 132.759 97.4027 132.898 C 98.0993 133.038 98.6216 133.004 99.2279 132.634 C 99.8342 132.264 100.072 131.775 100.267 131.092 C 100.462 130.409 100.378 129.676 100.033 129.055 Z" style="fill:#000080;stroke-width:0.529167" id="path6457"/>
      <svg:path d="M 93.1928 126.088 C 92.7989 125.497 92.0409 125.177 91.3395 125.065 C 90.6381 124.952 89.7439 125.242 89.1842 125.679 C 88.6246 126.117 88.112 126.883 88.0508 127.591 C 87.9896 128.298 88.212 129.001 88.6692 129.545 C 89.1263 130.089 89.7807 130.429 90.4885 130.49 C 91.1962 130.551 91.9234 130.337 92.4831 129.9 C 93.0428 129.462 93.4473 128.835 93.5598 128.134 C 93.6723 127.432 93.5868 126.68 93.1928 126.088 Z" style="fill:#008080;stroke-width:0.529167" id="path2304"/>
    </g>
    
      <g id="g5347">
      <svg:path d="M 104.334 120.454 C 104.565 121.126 104.445 121.874 104.163 122.526 C 103.881 123.178 103.351 123.691 102.691 123.952 C 102.03 124.214 101.29 124.27 100.626 124.017 C 99.9623 123.764 99.3469 123.328 99.0285 122.693 C 98.7102 122.058 98.8242 121.225 99.0772 120.561 C 99.3301 119.897 100.058 119.233 100.719 118.972 C 101.379 118.71 102.117 118.722 102.768 119.004 C 103.42 119.286 104.102 119.783 104.334 120.454 Z" style="fill:#ff0000;stroke-width:0.529167" id="path266"/>
      <svg:path d="M 113.103 118.233 C 113.29 119.7 112.202 121.029 110.765 121.381 C 110.075 121.549 109.346 121.437 108.739 121.068 C 108.132 120.7 107.599 120.16 107.398 119.478 C 107.198 118.797 107.471 117.996 107.84 117.389 C 108.208 116.782 108.803 116.346 109.493 116.177 C 110.93 115.826 112.917 116.766 113.103 118.233 Z" style="fill:#000080;stroke-width:0.529167" id="path5447"/>
      <svg:path d="M 110.005 125.095 C 110.356 126.532 109.971 127.804 108.573 128.286 C 107.174 128.767 105.851 127.979 105.307 126.604 C 104.762 125.228 105.429 123.703 106.828 123.221 C 108.226 122.739 109.654 123.659 110.005 125.095 Z" style="fill:#008080;stroke-width:0.529167" id="path4780"/>
    </g>
    
      <g id="g6654">
      <svg:path d="M 121.006 123.929 C 121.027 123.218 120.765 122.529 120.277 122.013 C 119.79 121.496 119.135 121.221 118.425 121.234 C 116.946 121.262 115.855 122.571 115.96 124.046 C 116.064 125.522 117.047 126.618 118.526 126.59 C 119.236 126.576 119.65 126.286 120.167 125.799 C 120.683 125.311 120.985 124.639 121.006 123.929 Z" style="fill:#ff0000;stroke-width:0.529167" id="path2036"/>
      <svg:path d="M 128.891 124.848 C 129.168 123.395 128.228 121.999 126.766 121.773 C 126.064 121.665 125.368 121.873 124.812 122.315 C 124.255 122.756 123.896 123.4 123.815 124.106 C 123.645 125.575 124.486 126.841 125.948 127.067 C 127.41 127.293 128.614 126.301 128.891 124.848 Z" style="fill:#000080;stroke-width:0.529167" id="path2897"/>
      <svg:path d="M 125.567 118.16 C 125.649 117.455 125.447 116.745 125.005 116.189 C 124.564 115.632 123.681 115.285 122.973 115.232 C 122.264 115.18 121.32 115.43 120.803 115.918 C 120.286 116.405 119.984 117.078 119.964 117.788 C 119.943 118.498 120.205 119.187 120.692 119.704 C 121.18 120.221 121.869 120.522 122.578 120.574 C 124.053 120.683 125.397 119.63 125.567 118.16 Z" style="fill:#008080;stroke-width:0.529167" id="path167"/>
    </g>
    
    </svg:g>
  
  </g>
</svg>